Convert real-world street addresses to county parcel identifiers • parcel
…
CAGIS Parcels Data

The cagis_parcels tabular data resource (TDR) is created using the R scripts in /inst and stored within the package. It can be loaded using {fr}:

d_parcel <- fr::read_fr_tdr(fs::path_package("parcel", "cagis_parcels"))

d_parcel
#> cagis_parcels
#> - version: 0.11.0
#> - title: CAGIS Parcels
#> - homepage: <https://github.com/geomarker-io/hamilton_parcels>
#> - description: A curated property-level data resource derived from the Hamilton
#> County, OH Auditor data distributed through CAGIS Open Data:
#> https://cagismaps.hamilton-co.org/cagisportal/mapdata/download
#> # A tibble: 259,653 × 14
#>    parcel_id     centroid_lat centroid_lon parcel_address    parcel_addr_number
#>    <chr>                <dbl>        <dbl> <chr>             <chr>             
#>  1 6210023015500         39.3        -84.3 184 CANNONADE DR  184               
#>  2 6210023017000         39.3        -84.3 154 THOROBRED RD  154               
#>  3 6210023017700         39.3        -84.3 112 CITATION CT   112               
#>  4 6210023018100         39.3        -84.3 119 CITATION CT   119               
#>  5 6210023018500         39.3        -84.3 112 THOROBRED RD  112               
#>  6 6210023020300         39.3        -84.3 242 CORDERO TL    242               
#>  7 6210023020500         39.3        -84.3 254 CORDERO TL    254               
#>  8 6210023022800         39.3        -84.3 212 RIVA RIDGE CT 212               
#>  9 6210023023100         39.3        -84.3 230 RIVA RIDGE CT 230               
#> 10 6210023023300         39.3        -84.3 242 RIVA RIDGE CT 242               
#> # ℹ 259,643 more rows
#> # ℹ 9 more variables: parcel_addr_street <chr>, parcel_addr_suffix <chr>,
#> #   land_use <fct>, condo_id <chr>, condo_unit <chr>, market_total_value <dbl>,
#> #   acreage <dbl>, homestead <lgl>, rental_registration <lgl>
…
Similarly, the hamilton_online_parcel TDR is created using the R scripts in /inst and stored within the package. It can be loaded using {fr}:

d_online <- fr::read_fr_tdr(fs::path_package("parcel", "hamilton_online_parcels"))

d_online
#> hamilton_online_parcels
#> - version: 0.11.0
#> - title: Hamilton Online Parcels
#> - homepage: <https://github.com/geomarker-io/parcel>
#> - description: A curated property-level data resource derived from scraping the
#> Hamilton County, OH Auditor Online: https://wedge1.hcauditor.org/. Data was
#> scraped for only residential parcels in CAGIS Parcels; see homepage for
#> details.
#> # A tibble: 259,653 × 7
#>    parcel_id     year_built n_total_rooms n_bedrooms n_full_bathrooms
#>    <chr>              <dbl>         <dbl>      <dbl>            <dbl>
#>  1 6210023015500       1990             8          4                3
#>  2 6210023017000       1990             7          3                2
#>  3 6210023017700       1991             8          4                2
#>  4 6210023018100       1991             9          4                2
#>  5 6210023018500       1990             5          3                2
#>  6 6210023020300       1991             9          4                3
#>  7 6210023020500       1992             8          4                2
#>  8 6210023022800       1992             8          4                2
#>  9 6210023023100       1992             6          2                3
#> 10 6210023023300       1992             7          3                2
#> # ℹ 259,643 more rows
#> # ℹ 2 more variables: n_half_bathrooms <dbl>, online_market_total_value <dbl>
…
